﻿OBJECTID_1,LAN_ew_AGS,LAN_ew_GEN,LAN_ew_BEZ,LAN_ew_EWZ,OBJECTID,Fallzahl,Aktualisierung,AGS_TXT,GlobalID,faelle_100000_EW,Death,SHAPE_Length,SHAPE_Area
1,01,Schleswig-Holstein,Land,2896712,15,4126,2020/09/06 21:59:59,01,{FC5BA936-C95C-432C-8A33-9EB2F30B660F},142.437356561508,161,20.9191264620575,2.15954567681771
2,02,Hamburg,Freie und Hansestadt,1841179,6,6486,2020/09/06 21:59:59,02,{0F3E860C-5181-4D3F-A421-1D51F50315EA},352.27427642831,267,3.10951982826658,0.10017859908052
3,03,Niedersachsen,Land,7982448,9,17284,2020/09/06 21:59:59,03,{3FD77024-C29B-4843-9BE8-682AD48E60C9},216.525055972804,665,29.8156067697764,6.34547245881216
4,04,Bremen,Freie Hansestadt,682986,5,2070,2020/09/06 21:59:59,04,{4132268B-54DE-4327-AC1E-760E915112F1},303.080883063489,58,2.4434099165342,0.0540986322033472
5,05,Nordrhein-Westfalen,Land,17932651,10,60433,2020/09/06 21:59:59,05,{561D658F-3EE5-46E3-BC95-3528C6558AB9},336.999811126643,1823,19.7250153818911,4.413413308508
6,06,Hessen,Land,6265809,7,16145,2020/09/06 21:59:59,06,{93277AC4-E8FC-48C7-8940-028DC2ED66AF},257.668243637813,535,15.9178246133033,2.68129889446109
7,07,Rheinland-Pfalz,Land,4084844,11,9364,2020/09/06 21:59:59,07,{E9B4296F-9BE2-4E53-9A58-CCF1396CB03D},229.237640409279,243,13.1938203642167,2.48562050756341
8,08,Baden-Württemberg,Land,11069533,1,43592,2020/09/06 21:59:59,08,{80394DDF-C6A4-4A6E-BE8E-0259A81B22A9},393.801617466609,1865,18.9961731044424,4.35421266002989
9,09,Bayern,Freistaat,13076721,2,59298,2020/09/06 21:59:59,09,{1FF920F4-62CD-4A4F-B8C9-F042F2A3E00A},453.462301443917,2642,29.2832556594748,8.66111920110973
10,10,Saarland,Land,990509,12,3199,2020/09/06 21:59:59,10,{E3396A6F-8A30-4FDF-8DF7-DEF77DD38BEA},322.965263314114,174,4.22859886627026,0.3183791139877
11,11,Berlin,Land,3644826,3,11727,2020/09/06 21:59:59,11,{C7033073-2BB0-486B-97AF-5B3C639E7219},321.743754022826,226,2.68122936739323,0.11801687170816
12,12,Brandenburg,Land,2511917,4,3931,2020/09/06 21:59:59,12,{B560AF89-5895-4BE4-96F8-0F581CD8A858},156.494024285038,169,18.8795052312507,3.92195584983268
13,13,Mecklenburg-Vorpommern,Land,1609675,8,1023,2020/09/06 21:59:59,13,{A27F5628-E790-45BE-898D-F0A6841C0F7E},63.5532017332691,20,30.0401103158293,3.1428121816959
14,14,Sachsen,Freistaat,4077937,13,6149,2020/09/06 21:59:59,14,{256D2405-A7C8-4FEC-93DF-29F3C808CD25},150.787027852564,225,15.2497070411544,2.36506980586789
15,15,Sachsen-Anhalt,Land,2208321,14,2282,2020/09/06 21:59:59,15,{66106BBE-F04B-4F92-80E1-5B5B30DA25B5},103.336426180795,66,14.2172902910093,2.69041636236946
16,16,Thüringen,Freistaat,2143145,16,3690,2020/09/06 21:59:59,16,{3A3E2817-BB19-4F8C-8BCA-D8FF591140D4},172.176870907008,186,15.0324529635839,2.07032354616438
