﻿FID,LAN_ew_AGS,LAN_ew_GEN,LAN_ew_BEZ,LAN_ew_EWZ,OBJECTID,Fallzahl,Aktualisierung,AGS_TXT,GlobalID,faelle_100000_EW,Death,SHAPE_Length,SHAPE_Area
1,01,Schleswig-Holstein,Land,2896712,15,2799,2020/05/04 21:59:59,01,{FC5BA936-C95C-432C-8A33-9EB2F30B660F},96.6267961744212,118,20.9191264620575,2.15954567681771
2,02,Hamburg,Freie und Hansestadt,1841179,6,4644,2020/05/04 21:59:59,02,{0F3E860C-5181-4D3F-A421-1D51F50315EA},252.229685435256,172,3.10951982826658,0.10017859908052
3,03,Niedersachsen,Land,7982448,9,10380,2020/05/04 21:59:59,03,{3FD77024-C29B-4843-9BE8-682AD48E60C9},130.035297442589,463,29.8156067697764,6.34547245881216
4,04,Bremen,Freie Hansestadt,682986,5,895,2020/05/04 21:59:59,04,{4132268B-54DE-4327-AC1E-760E915112F1},131.042217556436,31,2.4434099165342,0.0540986322033472
5,05,Nordrhein-Westfalen,Land,17932651,10,33728,2020/05/04 21:59:59,05,{561D658F-3EE5-46E3-BC95-3528C6558AB9},188.081505629034,1332,19.7250153818911,4.413413308508
6,06,Hessen,Land,6265809,7,8585,2020/05/04 21:59:59,06,{93277AC4-E8FC-48C7-8940-028DC2ED66AF},137.013432742683,381,15.9178246133033,2.68129889446109
7,07,Rheinland-Pfalz,Land,4084844,11,6160,2020/05/04 21:59:59,07,{E9B4296F-9BE2-4E53-9A58-CCF1396CB03D},150.801352511871,182,13.1938203642167,2.48562050756341
8,08,Baden-Württemberg,Land,11069533,1,32482,2020/05/04 21:59:59,08,{80394DDF-C6A4-4A6E-BE8E-0259A81B22A9},293.436046489043,1452,18.9961731044424,4.35421266002989
9,09,Bayern,Freistaat,13076721,2,43162,2020/05/04 21:59:59,09,{1FF920F4-62CD-4A4F-B8C9-F042F2A3E00A},330.067453454119,1949,29.2832556594748,8.66111920110973
10,10,Saarland,Land,990509,12,2618,2020/05/04 21:59:59,10,{E3396A6F-8A30-4FDF-8DF7-DEF77DD38BEA},264.308552471507,139,4.22859886627026,0.3183791139877
11,11,Berlin,Land,3644826,3,6042,2020/05/04 21:59:59,11,{C7033073-2BB0-486B-97AF-5B3C639E7219},165.769230136089,154,2.68122936739323,0.11801687170816
12,12,Brandenburg,Land,2511917,4,2940,2020/05/04 21:59:59,12,{B560AF89-5895-4BE4-96F8-0F581CD8A858},117.042083794966,123,18.8795052312507,3.92195584983268
13,13,Mecklenburg-Vorpommern,Land,1609675,8,703,2020/05/04 21:59:59,13,{A27F5628-E790-45BE-898D-F0A6841C0F7E},43.6734123347881,19,30.0401103158293,3.1428121816959
14,14,Sachsen,Freistaat,4077937,13,4745,2020/05/04 21:59:59,14,{256D2405-A7C8-4FEC-93DF-29F3C808CD25},116.357854473966,171,15.2497070411544,2.36506980586789
15,15,Sachsen-Anhalt,Land,2208321,14,1585,2020/05/04 21:59:59,15,{66106BBE-F04B-4F92-80E1-5B5B30DA25B5},71.7739857565997,46,14.2172902910093,2.69041636236946
16,16,Thüringen,Freistaat,2143145,16,2392,2020/05/04 21:59:59,16,{3A3E2817-BB19-4F8C-8BCA-D8FF591140D4},111.611673498527,99,15.0324529635839,2.07032354616438
