﻿FID,LAN_ew_AGS,LAN_ew_GEN,LAN_ew_BEZ,LAN_ew_EWZ,OBJECTID,Fallzahl,Aktualisierung,AGS_TXT,GlobalID,faelle_100000_EW,Death,SHAPE_Length,SHAPE_Area
1,01,Schleswig-Holstein,Land,2896712,15,3103,2020/06/01 21:59:59,01,{FC5BA936-C95C-432C-8A33-9EB2F30B660F},107.121453565284,145,20.9191264620575,2.15954567681771
2,02,Hamburg,Freie und Hansestadt,1841179,6,5098,2020/06/01 21:59:59,02,{0F3E860C-5181-4D3F-A421-1D51F50315EA},276.88779852475,253,3.10951982826658,0.10017859908052
3,03,Niedersachsen,Land,7982448,9,12065,2020/06/01 21:59:59,03,{3FD77024-C29B-4843-9BE8-682AD48E60C9},151.14411017773,594,29.8156067697764,6.34547245881216
4,04,Bremen,Freie Hansestadt,682986,5,1436,2020/06/01 21:59:59,04,{4132268B-54DE-4327-AC1E-760E915112F1},210.253211632449,42,2.4434099165342,0.0540986322033472
5,05,Nordrhein-Westfalen,Land,17932651,10,38100,2020/06/01 21:59:59,05,{561D658F-3EE5-46E3-BC95-3528C6558AB9},212.46161540756,1599,19.7250153818911,4.413413308508
6,06,Hessen,Land,6265809,7,10060,2020/06/01 21:59:59,06,{93277AC4-E8FC-48C7-8940-028DC2ED66AF},160.55388857209,480,15.9178246133033,2.68129889446109
7,07,Rheinland-Pfalz,Land,4084844,11,6704,2020/06/01 21:59:59,07,{E9B4296F-9BE2-4E53-9A58-CCF1396CB03D},164.11887455188,230,13.1938203642167,2.48562050756341
8,08,Baden-Württemberg,Land,11069533,1,34796,2020/06/01 21:59:59,08,{80394DDF-C6A4-4A6E-BE8E-0259A81B22A9},314.340270723255,1758,18.9961731044424,4.35421266002989
9,09,Bayern,Freistaat,13076721,2,47029,2020/06/01 21:59:59,09,{1FF920F4-62CD-4A4F-B8C9-F042F2A3E00A},359.639086893419,2456,29.2832556594748,8.66111920110973
10,10,Saarland,Land,990509,12,2730,2020/06/01 21:59:59,10,{E3396A6F-8A30-4FDF-8DF7-DEF77DD38BEA},275.615870224299,163,4.22859886627026,0.3183791139877
11,11,Berlin,Land,3644826,3,6839,2020/06/01 21:59:59,11,{C7033073-2BB0-486B-97AF-5B3C639E7219},187.635843247387,198,2.68122936739323,0.11801687170816
12,12,Brandenburg,Land,2511917,4,3274,2020/06/01 21:59:59,12,{B560AF89-5895-4BE4-96F8-0F581CD8A858},130.338701477796,155,18.8795052312507,3.92195584983268
13,13,Mecklenburg-Vorpommern,Land,1609675,8,761,2020/06/01 21:59:59,13,{A27F5628-E790-45BE-898D-F0A6841C0F7E},47.2766241632628,20,30.0401103158293,3.1428121816959
14,14,Sachsen,Freistaat,4077937,13,5309,2020/06/01 21:59:59,14,{256D2405-A7C8-4FEC-93DF-29F3C808CD25},130.188377113232,211,15.2497070411544,2.36506980586789
15,15,Sachsen-Anhalt,Land,2208321,14,1707,2020/06/01 21:59:59,15,{66106BBE-F04B-4F92-80E1-5B5B30DA25B5},77.2985449126282,55,14.2172902910093,2.69041636236946
16,16,Thüringen,Freistaat,2143145,16,3017,2020/06/01 21:59:59,16,{3A3E2817-BB19-4F8C-8BCA-D8FF591140D4},140.774422635893,163,15.0324529635839,2.07032354616438
